1951120004@sv.ut.edu.vn
1951120007@sv.ut.edu.vn
1951120009@sv.ut.edu.vn
1951120012@sv.ut.edu.vn
1951120014@sv.ut.edu.vn
1951120015@sv.ut.edu.vn
1951120016@sv.ut.edu.vn
1951120018@sv.ut.edu.vn
1951120020@sv.ut.edu.vn
1951120022@sv.ut.edu.vn
1951120027@sv.ut.edu.vn
1951120030@sv.ut.edu.vn
1951120034@sv.ut.edu.vn
1951120036@sv.ut.edu.vn
1951120037@sv.ut.edu.vn
1951120041@sv.ut.edu.vn
1951120042@sv.ut.edu.vn
1951120043@sv.ut.edu.vn
1951120044@sv.ut.edu.vn
1951120047@sv.ut.edu.vn
1951120050@sv.ut.edu.vn
1951120052@sv.ut.edu.vn
1951120055@sv.ut.edu.vn
1951120059@sv.ut.edu.vn
1951120061@sv.ut.edu.vn
1951120062@sv.ut.edu.vn
1951120069@sv.ut.edu.vn
1951120072@sv.ut.edu.vn
1951120074@sv.ut.edu.vn
1951120075@sv.ut.edu.vn
1951120076@sv.ut.edu.vn
1951120077@sv.ut.edu.vn
1951120078@sv.ut.edu.vn
1951120079@sv.ut.edu.vn
1951120080@sv.ut.edu.vn
1951120081@sv.ut.edu.vn